module github.com/influxdata/flux

go 1.12

require (
	github.com/BurntSushi/toml v0.3.1 // indirect
	github.com/DATA-DOG/go-sqlmock v1.3.3
	github.com/andreyvit/diff v0.0.0-20170406064948-c7f18ee00883
	github.com/apache/arrow/go/arrow v0.0.0-20190426170622-338c62a2a205
	github.com/c-bata/go-prompt v0.2.2
	github.com/cespare/xxhash v1.1.0
	github.com/dave/jennifer v1.2.0
	github.com/go-sql-driver/mysql v1.4.0
	github.com/golang/snappy v0.0.0-20180518054509-2e65f85255db // indirect
	github.com/google/go-cmp v0.2.0
	github.com/goreleaser/goreleaser v0.94.0
	github.com/influxdata/changelog v1.0.0
	github.com/influxdata/line-protocol v0.0.0-20180522152040-32c6aa80de5e
	github.com/influxdata/tdigest v0.0.0-20181121200506-bf2b5ad3c0a9
	github.com/lib/pq v1.0.0
	github.com/mattn/go-runewidth v0.0.3 // indirect
	github.com/mattn/go-tty v0.0.0-20180907095812-13ff1204f104 // indirect
	github.com/opentracing/opentracing-go v1.0.2
	github.com/pierrec/lz4 v2.0.5+incompatible // indirect
	github.com/pkg/errors v0.8.1
	github.com/pkg/term v0.0.0-20180730021639-bffc007b7fd5 // indirect
	github.com/satori/go.uuid v1.2.0
	github.com/segmentio/kafka-go v0.1.0
	github.com/spf13/cobra v0.0.3
	github.com/stretchr/testify v1.3.0
	go.uber.org/atomic v1.3.2 // indirect
	go.uber.org/multierr v1.1.0 // indirect
	go.uber.org/zap v1.9.1
	golang.org/x/exp v0.0.0-20181112044915-a3060d491354
	golang.org/x/tools v0.0.0-20181221154417-3ad2d988d5e2 // indirect
	gonum.org/v1/gonum v0.0.0-20181121035319-3f7ecaa7e8ca
	honnef.co/go/tools v0.0.0-20181108184350-ae8f1f9103cc
)
